task4/top.vcd
$version Generated by VerilatedVcd $end
$date Thu Oct 26 14:46:22 2023 $end
$timescale 1ps $end

 $scope module TOP $end
  $var wire 12 & bcd [11:0] $end
  $var wire  1 # clk $end
  $var wire  1 % en $end
  $var wire  1 $ rst $end
  $scope module top $end
   $var wire 32 ) WIDTH [31:0] $end
   $var wire 12 & bcd [11:0] $end
   $var wire  1 # clk $end
   $var wire  8 ' count [7:0] $end
   $var wire  1 % en $end
   $var wire  1 $ rst $end
   $scope module myCounter $end
    $var wire 32 ) WIDTH [31:0] $end
    $var wire  1 # clk $end
    $var wire  8 ' count [7:0] $end
    $var wire  1 % en $end
    $var wire  1 $ rst $end
   $upscope $end
   $scope module myDecoder $end
    $var wire 12 & BCD [11:0] $end
    $var wire 32 * i [31:0] $end
    $var wire 20 ( result [19:0] $end
    $var wire  8 ' x [7:0] $end
   $upscope $end
  $upscope $end
 $upscope $end
$enddefinitions $end


#0
1#
0$
1%
b000000000000 &
b00000000 '
b00000000000000000000 (
b00000000000000000000000000001000 )
b00000000000000000000000000001000 *
#1
0#
#2
1#
b000000000001 &
b00000001 '
b00000000000100000000 (
#3
0#
#4
1#
b000000000010 &
b00000010 '
b00000000001000000000 (
#5
0#
#6
1#
b000000000011 &
b00000011 '
b00000000001100000000 (
#7
0#
#8
1#
b000000000100 &
b00000100 '
b00000000010000000000 (
#9
0#
#10
1#
b000000000101 &
b00000101 '
b00000000010100000000 (
#11
0#
#12
1#
b000000000110 &
b00000110 '
b00000000011000000000 (
#13
0#
#14
1#
b000000000111 &
b00000111 '
b00000000011100000000 (
#15
0#
#16
1#
b000000001000 &
b00001000 '
b00000000100000000000 (
#17
0#
#18
1#
b000000001001 &
b00001001 '
b00000000100100000000 (
#19
0#
#20
1#
b000000010000 &
b00001010 '
b00000001000000000000 (
#21
0#
#22
1#
b000000010001 &
b00001011 '
b00000001000100000000 (
#23
0#
#24
1#
b000000010010 &
b00001100 '
b00000001001000000000 (
#25
0#
#26
1#
b000000010011 &
b00001101 '
b00000001001100000000 (
#27
0#
#28
1#
b000000010100 &
b00001110 '
b00000001010000000000 (
#29
0#
#30
1#
b000000010101 &
b00001111 '
b00000001010100000000 (
#31
0#
#32
1#
b000000010110 &
b00010000 '
b00000001011000000000 (
#33
0#
#34
1#
b000000010111 &
b00010001 '
b00000001011100000000 (
#35
0#
#36
1#
b000000011000 &
b00010010 '
b00000001100000000000 (
#37
0#
#38
1#
b000000011001 &
b00010011 '
b00000001100100000000 (
#39
0#
#40
1#
b000000100000 &
b00010100 '
b00000010000000000000 (
#41
0#
#42
1#
b000000100001 &
b00010101 '
b00000010000100000000 (
#43
0#
#44
1#
b000000100010 &
b00010110 '
b00000010001000000000 (
#45
0#
#46
1#
b000000100011 &
b00010111 '
b00000010001100000000 (
#47
0#
#48
1#
b000000100100 &
b00011000 '
b00000010010000000000 (
#49
0#
#50
1#
b000000100101 &
b00011001 '
b00000010010100000000 (
#51
0#
#52
1#
b000000100110 &
b00011010 '
b00000010011000000000 (
#53
0#
#54
1#
b000000100111 &
b00011011 '
b00000010011100000000 (
#55
0#
#56
1#
b000000101000 &
b00011100 '
b00000010100000000000 (
#57
0#
#58
1#
b000000101001 &
b00011101 '
b00000010100100000000 (
#59
0#
#60
1#
b000000110000 &
b00011110 '
b00000011000000000000 (
#61
0#
#62
1#
b000000110001 &
b00011111 '
b00000011000100000000 (
#63
0#
#64
1#
b000000110010 &
b00100000 '
b00000011001000000000 (
#65
0#
#66
1#
b000000110011 &
b00100001 '
b00000011001100000000 (
#67
0#
#68
1#
b000000110100 &
b00100010 '
b00000011010000000000 (
#69
0#
#70
1#
b000000110101 &
b00100011 '
b00000011010100000000 (
#71
0#
#72
1#
b000000110110 &
b00100100 '
b00000011011000000000 (
#73
0#
#74
1#
b000000110111 &
b00100101 '
b00000011011100000000 (
#75
0#
#76
1#
b000000111000 &
b00100110 '
b00000011100000000000 (
#77
0#
#78
1#
b000000111001 &
b00100111 '
b00000011100100000000 (
#79
0#
#80
1#
b000001000000 &
b00101000 '
b00000100000000000000 (
#81
0#
#82
1#
b000001000001 &
b00101001 '
b00000100000100000000 (
#83
0#
#84
1#
b000001000010 &
b00101010 '
b00000100001000000000 (
#85
0#
#86
1#
b000001000011 &
b00101011 '
b00000100001100000000 (
#87
0#
#88
1#
b000001000100 &
b00101100 '
b00000100010000000000 (
#89
0#
#90
1#
b000001000101 &
b00101101 '
b00000100010100000000 (
#91
0#
#92
1#
b000001000110 &
b00101110 '
b00000100011000000000 (
#93
0#
#94
1#
b000001000111 &
b00101111 '
b00000100011100000000 (
#95
0#
#96
1#
b000001001000 &
b00110000 '
b00000100100000000000 (
#97
0#
#98
1#
b000001001001 &
b00110001 '
b00000100100100000000 (
#99
0#
#100
1#
b000001010000 &
b00110010 '
b00000101000000000000 (
#101
0#
#102
1#
b000001010001 &
b00110011 '
b00000101000100000000 (
#103
0#
#104
1#
b000001010010 &
b00110100 '
b00000101001000000000 (
#105
0#
#106
1#
b000001010011 &
b00110101 '
b00000101001100000000 (
#107
0#
#108
1#
b000001010100 &
b00110110 '
b00000101010000000000 (
#109
0#
#110
1#
b000001010101 &
b00110111 '
b00000101010100000000 (
#111
0#
#112
1#
b000001010110 &
b00111000 '
b00000101011000000000 (
#113
0#
#114
1#
b000001010111 &
b00111001 '
b00000101011100000000 (
#115
0#
#116
1#
b000001011000 &
b00111010 '
b00000101100000000000 (
#117
0#
#118
1#
b000001011001 &
b00111011 '
b00000101100100000000 (
#119
0#
#120
1#
b000001100000 &
b00111100 '
b00000110000000000000 (
#121
0#
#122
1#
b000001100001 &
b00111101 '
b00000110000100000000 (
#123
0#
#124
1#
b000001100010 &
b00111110 '
b00000110001000000000 (
#125
0#
#126
1#
b000001100011 &
b00111111 '
b00000110001100000000 (
#127
0#
#128
1#
b000001100100 &
b01000000 '
b00000110010000000000 (
#129
0#
#130
1#
b000001100101 &
b01000001 '
b00000110010100000000 (
#131
0#
#132
1#
b000001100110 &
b01000010 '
b00000110011000000000 (
#133
0#
#134
1#
b000001100111 &
b01000011 '
b00000110011100000000 (
#135
0#
#136
1#
b000001101000 &
b01000100 '
b00000110100000000000 (
#137
0#
#138
1#
b000001101001 &
b01000101 '
b00000110100100000000 (
#139
0#
#140
1#
b000001110000 &
b01000110 '
b00000111000000000000 (
#141
0#
#142
1#
b000001110001 &
b01000111 '
b00000111000100000000 (
#143
0#
#144
1#
b000001110010 &
b01001000 '
b00000111001000000000 (
#145
0#
#146
1#
b000001110011 &
b01001001 '
b00000111001100000000 (
#147
0#
#148
1#
b000001110100 &
b01001010 '
b00000111010000000000 (
#149
0#
#150
1#
b000001110101 &
b01001011 '
b00000111010100000000 (
#151
0#
#152
1#
b000001110110 &
b01001100 '
b00000111011000000000 (
#153
0#
#154
1#
b000001110111 &
b01001101 '
b00000111011100000000 (
#155
0#
#156
1#
b000001111000 &
b01001110 '
b00000111100000000000 (
#157
0#
#158
1#
b000001111001 &
b01001111 '
b00000111100100000000 (
#159
0#
#160
1#
b000010000000 &
b01010000 '
b00001000000000000000 (
#161
0#
#162
1#
b000010000001 &
b01010001 '
b00001000000100000000 (
#163
0#
#164
1#
b000010000010 &
b01010010 '
b00001000001000000000 (
#165
0#
#166
1#
b000010000011 &
b01010011 '
b00001000001100000000 (
#167
0#
#168
1#
b000010000100 &
b01010100 '
b00001000010000000000 (
#169
0#
#170
1#
b000010000101 &
b01010101 '
b00001000010100000000 (
#171
0#
#172
1#
b000010000110 &
b01010110 '
b00001000011000000000 (
#173
0#
#174
1#
b000010000111 &
b01010111 '
b00001000011100000000 (
#175
0#
#176
1#
b000010001000 &
b01011000 '
b00001000100000000000 (
#177
0#
#178
1#
b000010001001 &
b01011001 '
b00001000100100000000 (
#179
0#
#180
1#
b000010010000 &
b01011010 '
b00001001000000000000 (
#181
0#
#182
1#
b000010010001 &
b01011011 '
b00001001000100000000 (
#183
0#
#184
1#
b000010010010 &
b01011100 '
b00001001001000000000 (
#185
0#
#186
1#
b000010010011 &
b01011101 '
b00001001001100000000 (
#187
0#
#188
1#
b000010010100 &
b01011110 '
b00001001010000000000 (
#189
0#
#190
1#
b000010010101 &
b01011111 '
b00001001010100000000 (
#191
0#
#192
1#
b000010010110 &
b01100000 '
b00001001011000000000 (
#193
0#
#194
1#
b000010010111 &
b01100001 '
b00001001011100000000 (
#195
0#
#196
1#
b000010011000 &
b01100010 '
b00001001100000000000 (
#197
0#
#198
1#
b000010011001 &
b01100011 '
b00001001100100000000 (
